{
  "code": 200,
  "desc": "success",
  "data": {
    "content": [
      {
        "topicId": 38552280446,
        "topicMain": "题目主题",
        "topicAnswer": "题目答案",
        "topicExplain": "题目解析",
        "topicType": 1,
        "topicTypeName": "题型名称",
        "topicClass": 10,
        "topicClassName": "年级名称",
        "topicCourse": 13,
        "topicCourseName": "语文",
        "period": 4,
        "periodName": "小学",
        "version": 5,
        "versionName": "2017人教版",
        "versionDetail": 6,
        "versionDetailName": "上册",
        "topicLevel": 7,
        "topicLevelName": "上学期",
        "topicKnowledgePoint": "111,112",
        "topicKnowledgePointName": "数与式子111,数与式子112",
        "topicChapter": "111,112",
        "topicChapterName": "name111,name112",
        "topicDifficultyLevel": 8,
        "topicDifficultyLevelName": "中档题",
        "topicFrom": "来源",
        "topicQueryNum": 0,
        "topicUserNum": 0,
        "topicStatus": 20,
        "trueTopic": 1,
        "keyWords": "选择题，一年级，语文，小学，2017人教版，上册，上学期，古诗，中档题",
        "createId": 1,
        "createName": null,
        "createNameFirstName": null,
        "createTime": 1512354194785,
        "modifyId": null,
        "modifyName": null,
        "modifyTime": null
      },
      {
        "topicId": 36464052894,
        "topicMain": "测试test",
        "topicAnswer": "answer",
        "topicExplain": "explain",
        "topicType": 1,
        "topicTypeName": null,
        "topicClass": 12,
        "topicClassName": null,
        "topicCourse": 2,
        "topicCourseName": null,
        "period": null,
        "periodName": null,
        "version": null,
        "versionName": null,
        "versionDetail": null,
        "versionDetailName": null,
        "topicLevel": 1,
        "topicLevelName": null,
        "topicKnowledgePoint": "2,",
        "topicKnowledgePointName": "小学语文2018人教版2",
        "topicChapter": "2",
        "topicChapterName": "知识点2",
        "topicDifficultyLevel": 1,
        "topicDifficultyLevelName": null,
        "topicFrom": "huaqiao middle school",
        "topicQueryNum": 0,
        "topicUserNum": 0,
        "topicStatus": 10,
        "trueTopic": null,
        "keyWords": "小学,小学一年级,数学,2017人教版,上册,上学期,基础题,单选题,第一章 有理数",
        "createId": 1,
        "createName": null,
        "createNameFirstName": null,
        "createTime": 1512093166340,
        "modifyId": null,
        "modifyName": null,
        "modifyTime": null
      },
      {
        "topicId": 35791686254,
        "topicMain": null,
        "topicAnswer": "answer",
        "topicExplain": "explain",
        "topicType": 1,
        "topicTypeName": null,
        "topicClass": 11,
        "topicClassName": null,
        "topicCourse": 2,
        "topicCourseName": null,
        "period": null,
        "periodName": null,
        "version": null,
        "versionName": null,
        "versionDetail": null,
        "versionDetailName": null,
        "topicLevel": 1,
        "topicLevelName": null,
        "topicKnowledgePoint": "2",
        "topicKnowledgePointName": "小学语文2018人教版2",
        "topicChapter": "2",
        "topicChapterName": "知识点2",
        "topicDifficultyLevel": 1,
        "topicDifficultyLevelName": null,
        "topicFrom": "huaqiao middle school",
        "topicQueryNum": 0,
        "topicUserNum": 0,
        "topicStatus": 0,
        "trueTopic": null,
        "keyWords": "小学,小学一年级,数学,2017人教版,上册,上学期,基础题,单选题,第一章 有理数",
        "createId": 1,
        "createName": null,
        "createNameFirstName": null,
        "createTime": 1512009120510,
        "modifyId": 0,
        "modifyName": null,
        "modifyTime": null
      }
    ],
    "totalElements":200,
    "totalPages": 30,
    "last": true,
    "number": 0,
    "size": 50,
    "first": true,
    "sort": [
      {
        "direction": "DESC",
        "property": "createTime",
        "ignoreCase": false,
        "nullHandling": "NATIVE",
        "ascending": false,
        "descending": true
      }
    ],
    "numberOfElements": 3
  },
  "list": null,
  "recordCount": null
}